<?xml version="1.0" encoding="utf-8"?>
<!-- Generator: Adobe Illustrator 19.0.0, SVG Export Plug-In . SVG Version: 6.00 Build 0)  -->
<svg version="1.1" id="Layer_2" xmlns="http://www.w3.org/2000/svg" xmlns:xlink="http://www.w3.org/1999/xlink" x="0px" y="0px"
	 viewBox="90.7 199.3 366.9 78.9" style="enable-background:new 90.7 199.3 366.9 78.9;" xml:space="preserve">
<style type="text/css">
	.st0{fill:#020202;}
</style>
<rect x="236.5" y="199.8" class="st0" width="1.4" height="77.6"/>
<g>
	<g>
		<path class="st0" d="M432.3,199.9h-36v9h35.5c12.2,0,15.9,3.8,16.8,9.8h-36.4c-13.5,0-19.5,5.2-19.5,17s6.1,17.1,19.8,17.1h45.1
			v-30.3C457.6,207.3,449.3,199.9,432.3,199.9 M448.8,243.8h-35.4c-11.1,0-11.6-2.5-11.6-8.1c0-5.4,1.2-7.9,11.8-7.9h35.2V243.8z"/>
		<path class="st0" d="M326.6,233.5h36.1c13.5,0,19.5-5.2,19.5-16.8c0-11.9-5.9-16.9-19.8-16.9h-19.3c-22.8,0-25.9,12.7-25.9,26.5
			s3.1,26.5,25.9,26.5H380v-9h-36.3C331.3,243.8,327.7,240.5,326.6,233.5 M343.8,208.6h17.7c10.5,0,11.6,2.5,11.6,8.1
			c0,5.4-1.1,7.7-11.8,7.7h-35.2C326.4,213.3,329.3,208.6,343.8,208.6"/>
	</g>
	<polygon class="st0" points="299.6,199.8 256.7,241 256.7,199.8 247.7,199.8 247.7,252.8 257.2,252.8 277.8,233 301.3,252.8 
		315.4,252.8 284.4,226.9 312.5,199.8 	"/>
	<g>
		<g>
			<path class="st0" d="M250,266.4v4.4l0,0l2.8-4.4h2.4l-3,4.7l3.4,6.3h-2.5l-2.3-4.5l-0.8,1.3v3.3h-2.2v-11L250,266.4L250,266.4z"
				/>
			<path class="st0" d="M257.1,276.8c-1-1-1.2-2.7-1.2-4.9c0-3.4,0.4-5.7,3.8-5.7c0.8,0,1.4,0.1,1.9,0.4l0.4-0.9l0.7,0.3l-0.5,1.1
				c1,1,1.2,2.7,1.2,4.9c0,3.4-0.4,5.7-3.8,5.7c-0.8,0-1.4-0.1-1.9-0.4l-0.4,0.9l-0.8-0.3L257.1,276.8z M260.8,268.4
				c-0.2-0.4-0.6-0.6-1.1-0.6c-1.3,0-1.5,1.1-1.5,4.1c0,1,0,1.7,0.1,2.3l0,0L260.8,268.4z M258.6,275.5c0.2,0.4,0.6,0.6,1.1,0.6
				c1.3,0,1.5-1.1,1.5-4.1c0-0.9,0-1.7-0.1-2.3l0,0L258.6,275.5z"/>
			<path class="st0" d="M264.8,266.4h3.8c1.8,0,3.2,0.7,3.2,2.8c0,1.2-0.6,2.1-1.7,2.4l0,0c1.2,0.2,2,1.1,2,2.6
				c0,1.7-0.9,3.2-3.5,3.2h-3.8V266.4z M267,270.9h0.6c1.2,0,1.8-0.4,1.8-1.5s-0.5-1.4-1.6-1.4H267V270.9z M267,275.8h0.9
				c1.1,0,1.8-0.4,1.8-1.7c0-1.3-0.7-1.7-1.7-1.7h-1L267,275.8L267,275.8z"/>
			<path class="st0" d="M279.7,266.4v1.8h-4v2.6h3.7v1.8h-3.7v3h4.1v1.8h-6.4v-11L279.7,266.4L279.7,266.4z"/>
			<path class="st0" d="M283.6,266.4l2.7,7.6l0,0v-7.6h2.1v11h-2.6l-2.7-7.7l0,0v7.7H281v-11H283.6z"/>
			<path class="st0" d="M289.9,266.4h2.3v4.2h2.6v-4.2h2.3v11h-2.3v-4.9h-2.6v4.9h-2.3V266.4z"/>
			<path class="st0" d="M300.8,266.4h2.8l2.9,11h-2.3l-0.5-2.3h-3l-0.5,2.3h-2.3L300.8,266.4z M301.1,273.3h2.2l-1.1-5l0,0
				L301.1,273.3z"/>
			<path class="st0" d="M308.8,266.4l1.6,8.2l0,0l1.7-8.2h2.3l-2.6,11H309l-2.6-11H308.8z"/>
			<path class="st0" d="M317.9,266.4l2.7,7.6l0,0v-7.6h2.1v11h-2.6l-2.7-7.7l0,0v7.7h-2.1v-11H317.9z"/>
			<path class="st0" d="M326,274v0.3c0,1,0.3,1.7,1.5,1.7c0.7,0,1.3-0.4,1.3-1.4s-0.5-1.4-2-1.9c-2-0.7-2.9-1.5-2.9-3.3
				c0-2.1,1.3-3.2,3.5-3.2c2,0,3.4,0.9,3.4,3v0.3h-2.2c0-1-0.4-1.6-1.2-1.6c-1,0-1.3,0.6-1.3,1.3c0,0.7,0.2,1.1,1.2,1.5l1.7,0.7
				c1.7,0.7,2.1,1.6,2.1,2.9c0,2.3-1.4,3.4-3.9,3.4s-3.5-1.2-3.5-3.2v-0.4L326,274L326,274z"/>
			<path class="st0" d="M342.3,266.4v1.8h-4v2.6h3.7v1.8h-3.7v3h4.1v1.8H336v-11L342.3,266.4L342.3,266.4z"/>
			<path class="st0" d="M343.6,266.4h4.2c1.8,0,3,1,3,2.8c0,1.5-0.6,2.5-1.9,2.7l0,0c1.5,0.2,1.8,1,1.8,3.4c0,1.2,0.1,1.8,0.5,2v0.1
				h-2.4c-0.2-0.3-0.3-0.7-0.3-1.2l-0.1-2.1c0-0.9-0.4-1.4-1.3-1.4h-1.2v4.7h-2.3L343.6,266.4L343.6,266.4z M345.8,271.2h0.9
				c1.1,0,1.7-0.5,1.7-1.7c0-1-0.5-1.5-1.6-1.5h-1.1v3.2H345.8z"/>
			<path class="st0" d="M352.3,266.4h2.3v4.2h2.6v-4.2h2.2v11h-2.2v-4.9h-2.6v4.9h-2.3V266.4z"/>
			<path class="st0" d="M362.6,266.4l1.6,8.2l0,0l1.7-8.2h2.3l-2.6,11h-2.9l-2.6-11H362.6z"/>
			<path class="st0" d="M375.3,266.4v1.8h-4v2.6h3.7v1.8h-3.7v3h4.1v1.8H369v-11L375.3,266.4L375.3,266.4z"/>
			<path class="st0" d="M376.6,266.4h4.2c1.8,0,3,1,3,2.8c0,1.5-0.6,2.5-1.9,2.7l0,0c1.5,0.2,1.8,1,1.8,3.4c0,1.2,0.1,1.8,0.5,2v0.1
				h-2.4c-0.2-0.3-0.3-0.7-0.3-1.2l-0.1-2.1c0-0.9-0.4-1.4-1.3-1.4h-1.2v4.7h-2.3L376.6,266.4L376.6,266.4z M378.8,271.2h0.9
				c1.1,0,1.7-0.5,1.7-1.7c0-1-0.5-1.5-1.6-1.5h-1.1v3.2H378.8z"/>
			<path class="st0" d="M386.9,266.4l1.6,8.2l0,0l1.7-8.2h2.3l-2.6,11H387l-2.6-11H386.9z"/>
			<path class="st0" d="M395.1,274v0.3c0,1,0.3,1.7,1.5,1.7c0.7,0,1.3-0.4,1.3-1.4s-0.5-1.4-2-1.9c-2-0.7-2.9-1.5-2.9-3.3
				c0-2.1,1.3-3.2,3.4-3.2c2,0,3.5,0.9,3.5,3v0.3h-2.2c0-1-0.4-1.6-1.2-1.6c-1,0-1.3,0.6-1.3,1.3c0,0.7,0.2,1.1,1.2,1.5l1.7,0.7
				c1.7,0.7,2.1,1.6,2.1,2.9c0,2.3-1.4,3.4-3.9,3.4s-3.5-1.2-3.5-3.2v-0.4L395.1,274L395.1,274z"/>
			<path class="st0" d="M403.6,266.4h2.8l3,11H407l-0.5-2.3h-3l-0.5,2.3h-2.3L403.6,266.4z M403.9,273.3h2.2l-1.1-5l0,0L403.9,273.3
				z"/>
		</g>
		<g>
			<path class="st0" d="M412.4,266.4v4.4l0,0l2.8-4.4h2.4l-3,4.7l3.4,6.3h-2.5l-2.3-4.5l-0.8,1.3v3.3h-2.3v-11L412.4,266.4
				L412.4,266.4z"/>
		</g>
		<g>
			<path class="st0" d="M420.7,266.4h2.8l3,11H424l-0.5-2.3h-3l-0.5,2.3h-2.3L420.7,266.4z M421,273.3h2.2l-1.1-5l0,0L421,273.3z"/>
			<path class="st0" d="M427.3,266.4h3.7c3.1,0,3.7,2.1,3.7,5.4c0,3.9-0.8,5.7-3.8,5.7h-3.5v-11.1H427.3z M429.5,275.8h1
				c1.6,0,1.9-1,1.9-4c0-2.5-0.2-3.8-1.9-3.8h-1V275.8z"/>
			<path class="st0" d="M442.4,266.4v1.8h-4v2.6h3.7v1.8h-3.7v3h4.1v1.8h-6.4v-11L442.4,266.4L442.4,266.4z"/>
			<path class="st0" d="M443.7,266.4h3.3l1.6,7.8l0,0l1.6-7.8h3.3v11h-2.1v-8.8l0,0l-2,8.8h-1.8l-2-8.8l0,0v8.8h-2.1v-11H443.7z"/>
			<path class="st0" d="M455.3,277.4v-11h2.2v11H455.3z"/>
		</g>
	</g>
</g>
<g>
	<path class="st0" d="M104.6,213.8v0.5c0,3.9-1.6,7.7-6.7,7.7c-5.5,0-7.2-3.5-7.2-11.3c0-7.7,1.7-11.3,7.2-11.3
		c6.2,0,6.5,4.6,6.5,6.8v0.4H101v-0.4c0-2-0.6-4.3-3.1-4.2c-2.6,0-3.7,1.6-3.7,8.6s1.2,8.8,3.7,8.8c2.9,0,3.2-3.2,3.2-5.2v-0.4
		H104.6z"/>
	<path class="st0" d="M107,199.8h3.5v8.7h6.4v-8.7h3.5v21.7h-3.5v-10.1h-6.4v10.1H107V199.8z"/>
	<path class="st0" d="M127.4,199.8h4.4l5.7,21.7h-3.6l-1.3-5.3h-6.4l-1.4,5.3h-3.6L127.4,199.8z M132,213.5l-2.5-10.7h-0.1
		l-2.6,10.7H132z"/>
	<path class="st0" d="M139.3,199.8h3.5v18.8h8.4v2.9h-11.8L139.3,199.8L139.3,199.8z"/>
	<path class="st0" d="M152.7,199.8h3.5v18.8h8.4v2.9h-11.8L152.7,199.8L152.7,199.8z"/>
	<path class="st0" d="M166.6,199.8h11.7v2.9H170v6h7.8v2.9H170v6.9h8.5v2.9h-12v-21.6H166.6z"/>
	<path class="st0" d="M181.2,199.8h4.2l6.3,16.2h0.1v-16.2h3.3v21.7h-4.2l-6.3-16.6h-0.1v16.6h-3.3V199.8z"/>
	<path class="st0" d="M209.4,219L209.4,219c-1,2-2.2,2.9-4.8,2.9c-4.7,0-6.4-3.5-6.4-11.3c0-7.7,2.2-11.3,7.2-11.3
		c5.4,0,6.4,4.3,6.4,6.3v0.4h-3.3v-0.5c0-1.6-0.7-3.5-3-3.5c-2.5,0-3.8,1.6-3.8,8.6s1.2,8.8,3.5,8.8c2.6,0,3.6-1.9,3.6-6.6h-3.6
		v-2.7h6.9v11.4h-2.6L209.4,219L209.4,219z"/>
	<path class="st0" d="M215,199.8h11.7v2.9h-8.3v6h7.8v2.9h-7.8v6.9h8.5v2.9h-12v-21.6H215z"/>
</g>
<g>
	<path class="st0" d="M187.6,230.7h-5.2v-2.9h13.7v2.9H191v18.8h-3.5v-18.8H187.6z"/>
	<path class="st0" d="M198.1,227.8h3.5v8.7h6.4v-8.7h3.5v21.7H208v-10.1h-6.4v10.1h-3.5V227.8z"/>
	<path class="st0" d="M215,227.8h11.7v2.9h-8.3v6h7.8v2.9h-7.8v6.9h8.5v2.9h-12v-21.6H215z"/>
</g>
<g>
	<path class="st0" d="M108,266.6c0-7.7,2.2-11.3,7.2-11.3s7.2,3.5,7.2,11.3c0,7.7-2.2,11.3-7.2,11.3S108,274.3,108,266.6z
		 M118.9,266.5c0-7.3-1.6-8.6-3.7-8.6c-2.1,0-3.7,1.3-3.7,8.6c0,7.5,1.6,8.8,3.7,8.8C117.3,275.3,118.9,274,118.9,266.5z"/>
	<path class="st0" d="M125.5,255.8h7.7c3,0,5.5,1.5,5.5,5.6c0,2.8-1.2,5-3.6,5.3v0.1c2.2,0.2,3.3,1.4,3.4,4.4c0,1.4,0.1,3.1,0.1,4.4
		c0.1,1.1,0.6,1.6,1,1.9h-3.9c-0.3-0.4-0.5-1.1-0.6-1.9c-0.1-1.3-0.1-2.5-0.2-4.1c-0.1-2.4-0.8-3.4-3.2-3.4h-2.8v9.4h-3.5v-21.7
		H125.5z M131.7,265.4c2.2,0,3.5-1.3,3.5-3.5c0-2.3-1-3.5-3.3-3.5H129v7H131.7z"/>
	<path class="st0" d="M141.8,255.8h6.2c6.8,0,7.7,4.4,7.7,10.8s-0.9,10.8-7.7,10.8h-6.2V255.8z M145.2,274.8h2.9c2.9,0,4-1.9,4-8.2
		c0-6.1-1-8.2-4-8.2h-2.9V274.8z"/>
	<path class="st0" d="M158.5,255.8h3.5v21.7h-3.5V255.8z"/>
	<path class="st0" d="M165.4,255.8h4.2l6.3,16.2h0.1v-16.2h3.3v21.7H175l-6.3-16.6h-0.1v16.6h-3.3v-21.7H165.4z"/>
	<path class="st0" d="M187.6,255.8h4.4l5.7,21.7h-3.6l-1.3-5.3h-6.4l-1.4,5.3h-3.6L187.6,255.8z M192.2,269.4l-2.5-10.7h-0.1
		l-2.6,10.7H192.2z"/>
	<path class="st0" d="M199.2,255.8h7.7c3,0,5.5,1.5,5.5,5.6c0,2.8-1.2,5-3.6,5.3v0.1c2.2,0.2,3.3,1.4,3.4,4.4c0,1.4,0.1,3.1,0.1,4.4
		c0.1,1.1,0.6,1.6,1,1.9h-3.9c-0.3-0.4-0.5-1.1-0.6-1.9c-0.1-1.3-0.1-2.5-0.2-4.1c-0.1-2.4-0.8-3.4-3.2-3.4h-2.8v9.4h-3.5v-21.7
		H199.2z M205.5,265.4c2.2,0,3.5-1.3,3.5-3.5c0-2.3-1-3.5-3.3-3.5h-2.9v7H205.5z"/>
	<path class="st0" d="M218.7,269l-5.6-13.2h3.9l3.6,9.4l3.7-9.4h3.6l-5.8,13.2v8.5h-3.5V269H218.7z"/>
</g>
</svg>
