<?xml version="1.0" encoding="utf-8"?>
<!-- Generator: Adobe Illustrator 19.0.0, SVG Export Plug-In . SVG Version: 6.00 Build 0)  -->
<svg version="1.1" id="Layer_1" xmlns="http://www.w3.org/2000/svg" xmlns:xlink="http://www.w3.org/1999/xlink" x="0px" y="0px"
	 viewBox="202.9 440.4 200 65.3" style="enable-background:new 202.9 440.4 200 65.3;" xml:space="preserve">
<style type="text/css">
	.st0{clip-path:url(#SVGID_2_);}
	.st1{clip-path:url(#SVGID_4_);}
</style>
<g>
	<g>
		<defs>
			<polygon id="SVGID_1_" points="202.9,505.7 402.9,505.2 402.9,440.4 202.9,440.4 			"/>
		</defs>
		<clipPath id="SVGID_2_">
			<use xlink:href="#SVGID_1_"  style="overflow:visible;"/>
		</clipPath>
		<path class="st0" d="M366.3,440.4h-30v7.5h29.5c10.2,0,13.3,3.2,14,8.2h-30.3c-11.3,0-16.3,4.4-16.3,14.1
			c0,9.9,5.1,14.3,16.5,14.3h37.6v-25.2C387.4,446.5,380.5,440.4,366.3,440.4 M380.1,476.9h-29.5c-9.2,0-9.6-2.1-9.6-6.7
			c0-4.5,1-6.6,9.8-6.6h29.3L380.1,476.9L380.1,476.9z"/>
	</g>
	<g>
		<defs>
			<polygon id="SVGID_3_" points="202.9,505.7 402.9,505.2 402.9,440.4 202.9,440.4 			"/>
		</defs>
		<clipPath id="SVGID_4_">
			<use xlink:href="#SVGID_3_"  style="overflow:visible;"/>
		</clipPath>
		<path class="st1" d="M278.3,468.4h30.1c11.3,0,16.3-4.3,16.3-14c0-9.9-4.9-14.1-16.5-14.1h-16.1c-19,0-21.6,10.6-21.6,22
			c0,11.5,2.6,22.1,21.6,22.1h30.8V477h-30.2C282.2,477,279.3,474.2,278.3,468.4 M292.6,447.7h14.8c8.7,0,9.6,2.1,9.6,6.8
			c0,4.5-0.9,6.4-9.8,6.4h-29.3C278.2,451.6,280.6,447.7,292.6,447.7"/>
	</g>
</g>
<polygon points="255.9,440.4 220.1,474.6 220.1,440.4 212.6,440.4 212.6,484.5 220.5,484.5 237.7,468 257.2,484.5 269,484.5 
	243.2,462.9 266.6,440.4 "/>
<g>
	<g>
		<path d="M214.3,495.8v3.7l0,0l2.4-3.7h2l-2.5,4l2.8,5.3h-2.1l-1.9-3.8l-0.7,1v2.7h-1.9v-9.2H214.3z"/>
		<path d="M220.2,504.5c-0.9-0.8-1-2.3-1-4.1c0-2.8,0.4-4.8,3.2-4.8c0.7,0,1.2,0.1,1.6,0.3l0.3-0.8l0.6,0.3l-0.4,0.9
			c0.9,0.8,1,2.3,1,4.1c0,2.8-0.4,4.8-3.2,4.8c-0.7,0-1.2-0.1-1.6-0.3l-0.3,0.8l-0.6-0.3L220.2,504.5z M223.3,497.4
			c-0.2-0.3-0.5-0.5-0.9-0.5c-1.1,0-1.3,1-1.3,3.4c0,0.8,0,1.4,0.1,1.9l0,0L223.3,497.4z M221.5,503.3c0.2,0.3,0.5,0.5,0.9,0.5
			c1.1,0,1.3-0.9,1.3-3.4c0-0.8,0-1.4-0.1-1.9l0,0L221.5,503.3z"/>
		<path d="M226.7,495.8h3.1c1.5,0,2.6,0.6,2.6,2.3c0,1-0.5,1.8-1.4,2l0,0c1,0.1,1.7,0.9,1.7,2.1c0,1.4-0.7,2.7-2.9,2.7h-3.2
			L226.7,495.8L226.7,495.8z M228.5,499.6h0.5c1,0,1.5-0.3,1.5-1.2s-0.4-1.2-1.4-1.2h-0.7L228.5,499.6L228.5,499.6z M228.5,503.6
			h0.7c0.9,0,1.5-0.3,1.5-1.4c0-1.1-0.6-1.4-1.4-1.4h-0.8V503.6z"/>
		<path d="M239.1,495.8v1.5h-3.3v2.2h3.1v1.5h-3.1v2.5h3.5v1.5H234v-9.2H239.1z"/>
		<path d="M242.3,495.8l2.3,6.3l0,0v-6.3h1.7v9.2h-2.1l-2.3-6.5l0,0v6.5h-1.7v-9.2H242.3z"/>
		<path d="M247.7,495.8h1.9v3.5h2.2v-3.5h1.9v9.2h-1.9v-4.1h-2.2v4.1h-1.9V495.8z"/>
		<path d="M256.7,495.8h2.3l2.5,9.2h-2l-0.4-1.9h-2.5l-0.4,1.9h-2L256.7,495.8z M257,501.5h1.8l-0.9-4.1l0,0L257,501.5z"/>
		<path d="M263.4,495.8l1.3,6.8l0,0l1.4-6.8h1.9l-2,9.2h-2.4l-2.1-9.2H263.4z"/>
		<path d="M270.9,495.8l2.3,6.3l0,0v-6.3h1.7v9.2h-2.1l-2.3-6.5l0,0v6.5h-1.7v-9.2H270.9z"/>
		<path d="M277.8,502.1v0.3c0,0.9,0.2,1.4,1.2,1.4c0.6,0,1.1-0.4,1.1-1.1c0-0.8-0.4-1.1-1.7-1.6c-1.7-0.6-2.4-1.3-2.4-2.8
			c0-1.8,1.1-2.7,2.9-2.7c1.7,0,2.9,0.7,2.9,2.5v0.3H280c0-0.9-0.3-1.4-1-1.4c-0.8,0-1.1,0.5-1.1,1.1s0.2,0.9,1,1.3l1.4,0.6
			c1.4,0.6,1.8,1.3,1.8,2.4c0,1.9-1.2,2.8-3.2,2.8c-2.1,0-3-1-3-2.7v-0.4L277.8,502.1L277.8,502.1z"/>
		<path d="M291.3,495.8v1.5H288v2.2h3.1v1.5H288v2.5h3.5v1.5h-5.3v-9.2H291.3z"/>
		<path d="M292.4,495.8h3.5c1.5,0,2.5,0.8,2.5,2.4c0,1.2-0.5,2.1-1.6,2.3l0,0c1.3,0.2,1.5,0.9,1.5,2.8c0,1,0.1,1.5,0.4,1.7v0.1h-2
			c-0.2-0.3-0.2-0.6-0.2-1l-0.1-1.8c0-0.7-0.4-1.2-1.1-1.2h-1v3.9h-1.9L292.4,495.8L292.4,495.8z M294.3,499.8h0.8
			c0.9,0,1.4-0.4,1.4-1.4c0-0.9-0.5-1.3-1.3-1.3h-0.9V499.8z"/>
		<path d="M299.7,495.8h1.9v3.5h2.2v-3.5h1.9v9.2h-1.9v-4.1h-2.2v4.1h-1.9V495.8z"/>
		<path d="M308.3,495.8l1.3,6.8l0,0l1.4-6.8h1.9l-2.1,9.2h-2.4l-2.1-9.2H308.3z"/>
		<path d="M318.9,495.8v1.5h-3.3v2.2h3.1v1.5h-3.1v2.5h3.5v1.5h-5.3v-9.2H318.9z"/>
		<path d="M319.9,495.8h3.5c1.5,0,2.5,0.8,2.5,2.4c0,1.2-0.5,2.1-1.6,2.3l0,0c1.3,0.2,1.5,0.9,1.5,2.8c0,1,0.1,1.5,0.4,1.7v0.1h-2
			c-0.2-0.3-0.2-0.6-0.2-1l-0.1-1.8c0-0.7-0.4-1.2-1.1-1.2h-1v3.9h-1.9L319.9,495.8L319.9,495.8z M321.8,499.8h0.8
			c0.9,0,1.4-0.4,1.4-1.4c0-0.9-0.5-1.3-1.3-1.3h-0.9V499.8z"/>
		<path d="M328.6,495.8l1.3,6.8l0,0l1.4-6.8h1.9l-2.1,9.2h-2.4l-2.1-9.2H328.6z"/>
		<path d="M335.4,502.1v0.3c0,0.9,0.2,1.4,1.2,1.4c0.6,0,1.1-0.4,1.1-1.1c0-0.8-0.4-1.1-1.7-1.6c-1.7-0.6-2.4-1.3-2.4-2.8
			c0-1.8,1.1-2.7,2.9-2.7c1.7,0,2.9,0.7,2.9,2.5v0.3h-1.8c0-0.9-0.3-1.4-1-1.4c-0.8,0-1.1,0.5-1.1,1.1s0.2,0.9,1,1.3l1.4,0.6
			c1.4,0.6,1.8,1.3,1.8,2.4c0,1.9-1.2,2.8-3.2,2.8c-2.1,0-3-1-3-2.7v-0.4L335.4,502.1L335.4,502.1z"/>
		<path d="M342.5,495.8h2.3l2.5,9.2h-2l-0.4-1.9h-2.5L342,505h-2L342.5,495.8z M342.7,501.5h1.8l-0.9-4.1l0,0L342.7,501.5z"/>
	</g>
	<g>
		<path d="M349.8,495.8v3.7l0,0l2.4-3.7h2l-2.5,4l2.8,5.3h-2.1l-1.9-3.8l-0.7,1v2.7h-1.9v-9.2H349.8z"/>
	</g>
	<g>
		<path d="M356.7,495.8h2.3l2.5,9.2h-2l-0.4-1.9h-2.5l-0.4,1.9h-2L356.7,495.8z M357,501.5h1.8l-0.9-4.1l0,0L357,501.5z"/>
		<path d="M362.2,495.8h3.1c2.6,0,3.1,1.8,3.1,4.5c0,3.3-0.7,4.7-3.2,4.7h-3V495.8z M364.1,503.6h0.8c1.3,0,1.6-0.8,1.6-3.3
			c0-2.1-0.2-3.2-1.6-3.2h-0.8V503.6z"/>
		<path d="M374.8,495.8v1.5h-3.3v2.2h3.1v1.5h-3.1v2.5h3.5v1.5h-5.3v-9.2H374.8z"/>
		<path d="M375.9,495.8h2.8l1.3,6.5l0,0l1.3-6.5h2.8v9.2h-1.7v-7.4l0,0l-1.7,7.4h-1.5l-1.7-7.4l0,0v7.4h-1.7v-9.2H375.9z"/>
		<path d="M385.6,505v-9.2h1.9v9.2H385.6z"/>
	</g>
</g>
</svg>
